{
  "currency": {
    "regexp": "\/^(\\-){0,1}\\s*(\\d+)(,(\\d+)){0,1}$\/",
    "strip_chars": "."
  },
  "currency_ext": {
    "regexp": "\/^(\\-){0,1}\\s*(\\d+)(,(\\d+)){0,5}$\/",
    "strip_chars": "."
  },
  "number": {
    "regexp": "\/^\\s*(\\-){0,1}\\s*(\\d+)\\s*(\\,\\s*(\\d+)){0,1}\\s*$\/",
    "strip_chars": "."
  },
  "number_ext": {
    "regexp": "\/^\\s*(\\-){0,1}\\s*(\\d+)\\s*(\\,\\s*(\\d+)){0,5}\\s*$\/",
    "strip_chars": "."
  },
  "check_currency": {
    "regexp": "\/^\\s*\\-{0,1}\\s*\\d{1,3}(\\.{0,1}\\d{3})*\\s*(\\,\\s*\\d{1,2}){0,1}\\s*$\/"
  },
  "check_currency_ext": {
    "regexp": "\/^\\s*\\-{0,1}\\s*\\d{1,3}(\\.{0,1}\\d{3})*\\s*(\\,\\s*\\d{1,5}){0,1}\\s*$\/"
  },
  "check_number": {
    "regexp": "\/^\\s*\\-{0,1}\\s*\\d+\\s*(\\,\\s*\\d+){0,1}\\s*$\/"
  },
  "check_number_ext": {
    "regexp": "\/^\\s*(\\-){0,1}\\s*(\\d+)\\s*(\\,\\s*(\\d+)){0,5}\\s*$\/"
  },
  "empty_currency": "0,00"
}