{
  "meta": {
    "viewport": {
      "name": "viewport",
      "content": "width=device-width, initial-scale=1.0"
    },
    "msapplication-TileColor": {
      "name": "msapplication-TileColor",
      "content": "#da532c"
    },
    "theme-color": {
      "name": "theme-color",
      "content": "#ffffff"
    },
    "robots": {
      "name": "robots",
      "content": "index, follow"
    }
  },
  "favicons": {
    "favicon": {
      "rel": "shortcut icon",
      "sizes": "16x16",
      "href": null
    },
    "apple-touch-icon-57x57": {
      "rel": "apple-touch-icon",
      "sizes": "57x57",
      "href": null
    },
    "apple-touch-icon-60x60": {
      "rel": "apple-touch-icon",
      "sizes": "60x60",
      "href": null
    },
    "apple-touch-icon-72x72": {
      "rel": "apple-touch-icon",
      "sizes": "72x72",
      "href": null
    },
    "apple-touch-icon-76x76": {
      "rel": "apple-touch-icon",
      "sizes": "76x76",
      "href": null
    },
    "apple-touch-icon-114x114": {
      "rel": "apple-touch-icon",
      "sizes": "114x114",
      "href": null
    },
    "apple-touch-icon-120x120": {
      "rel": "apple-touch-icon",
      "sizes": "120x120",
      "href": null
    },
    "apple-touch-icon-144x144": {
      "rel": "apple-touch-icon",
      "sizes": "144x144",
      "href": null
    },
    "apple-touch-icon-152x152": {
      "rel": "apple-touch-icon",
      "sizes": "152x152",
      "href": null
    },
    "apple-touch-icon-180x180": {
      "rel": "apple-touch-icon",
      "sizes": "180x180",
      "href": null
    },
    "icon-192x192": {
      "rel": "icon",
      "type": "image\/png",
      "sizes": "192x192",
      "href": null
    },
    "icon-32x32": {
      "rel": "icon",
      "type": "image\/png",
      "sizes": "32x32",
      "href": null
    },
    "icon-96x96": {
      "rel": "icon",
      "type": "image\/png",
      "sizes": "96x96",
      "href": null
    },
    "icon-16x16": {
      "rel": "icon",
      "type": "image\/png",
      "sizes": "16x16",
      "href": null
    }
  },
  "resource_rules": {
    "layouts": {
      "flag": 4,
      "type": "layouts",
      "filter": [
        "html",
        "tpl"
      ]
    },
    "commons": {
      "flag": 4,
      "type": "common",
      "filter": [
        "html",
        "tpl"
      ]
    },
    "css": {
      "flag": 4,
      "type": "css",
      "filter": [
        "css"
      ]
    },
    "js": {
      "flag": 4,
      "type": "js",
      "filter": [
        "js"
      ]
    },
    "images": {
      "flag": 4,
      "type": "images",
      "filter": [
        "jpg",
        "png",
        "svg",
        "jpeg",
        "gif"
      ]
    },
    "fonts": {
      "flag": 4,
      "type": "fonts",
      "filter": [
        "otf",
        "eot",
        "svg",
        "ttf",
        "woff",
        "woff2"
      ]
    }
  }
}